{
    "401"   : "Access token Invalid",
    "ERR000": "Undefined error",
    "ERR001": "field is required",
    "ERR004": "Entity Not exist",
    "ERR009": "Login required",
    "ERR011": "Phone number is already exist",
    "ERR012": "Coupon is not available for you",
    "ERR013": "Required data type format mismatch",
    "ERR014": "Too small input value required",
    "ERR015": "User not found",
    "ERR017": "Invalid credentials",
    "ERR019": "Service not available",
    "ERR022": "Not a valid format",
    "ERR023": "Please use a valid transaction type",
    "ERR024": "Email already exist",
    "ERR025": "Invalid activation link or email is already verified",
    "ERR026": "Username already used by someone else",
    "ERR027": "Invalid OTP",
    "ERR028": "Email id is not verified",
    "ERR029": "Mobile number is not verified",
    "ERR030": "Invalid account type",
    "ERR031": "Invalid parent principle account number",
    "ERR032": "Access Denied",
    "ERR033": "Charity/Partner/User Id not found",
    "ERR034": "Donation distribution is not 100 percent",
    "ERR035": "Datatype of field is Invalid",
    "ERR036": "Entry not found",
    "ERR037": "Incorrect Charity Allocation for Emergency only plan",
    "ERR038": "This user does not have any charity plans/donation percentage distribution plan",
    "ERR039": "Invalid Partner",
    "ERR040": "Invalid User",
    "ERR041": "Charity Amount Exceeded ",
    "ERR042": "Unable to set plan",
    "ERR043": "No plan id/plan details found",
    "ERR044": "Data is outside the permissible values",
    "ERR045": "End-User is not permitted to have Emergency type of charity Plan",
    "ERR046": "You cannot switch this plan to draft",
    "ERR047": "This type of user is not permitted to create charity plans",
    "ERR048": "SKU is not valid please enter another on and try again",
    "ERR049": "Your User's type(Charity/Partner/End-User) is not set, please set it up",
    "ERR050": "Invalid document id",
    "ERR051": "No transactions found for user/partner",
    "ERR052": "NO INVOICE DETAILS FOUND FOR THIS PARTNER/CHARITY",
    "ERR053": "Required parameters missing",
    "ERR054": "Wallet has insufficient funds",
    "ERR055": "No files attached",
    "ERR056": "Partner does not have any qualifiable charity plans for donation",
    "ERR057": "No donations found during past month for Foundations with billing date today",
    "ERR058": "File name allocation failed for generated invoice"
}
